id,congresista_id,perparid,pleynum,name,proyectoley
1,4,2021,2849,"Aguinaga Recuenco, Alejandro Aurelio",02849/2022-CR
2,5,2021,3407,"Alcarraz Agüero, Yorel Kira",03407/2022-CR
3,11,2021,3774,"Aragón Carreño, Luis Ángel",03774/2022-CR
4,11,2021,3365,"Aragón Carreño, Luis Ángel",03365/2022-CR
5,11,2021,2953,"Aragón Carreño, Luis Ángel",02953/2022-CR
6,11,2021,1669,"Aragón Carreño, Luis Ángel",01669/2021-CR
7,11,2021,1015,"Aragón Carreño, Luis Ángel",01015/2021-CR
8,13,2021,922,"Azurín Loayza, Alfredo",00922/2021-CR
9,13,2021,744,"Azurín Loayza, Alfredo",00744/2021-CR
10,16,2021,1918,"Bazán Calderón, Diego Alonso Fernando",01918/2021-CR
11,17,2021,4483,"Bazán Narro, Sigrid Tesoro",04483/2022-CR
12,17,2021,4064,"Bazán Narro, Sigrid Tesoro",04064/2022-CR
13,17,2021,3132,"Bazán Narro, Sigrid Tesoro",03132/2022-CR
14,17,2021,2953,"Bazán Narro, Sigrid Tesoro",02953/2022-CR
15,17,2021,1050,"Bazán Narro, Sigrid Tesoro",01050/2021-CR
16,17,2021,955,"Bazán Narro, Sigrid Tesoro",00955/2021-CR
17,17,2021,790,"Bazán Narro, Sigrid Tesoro",00790/2021-CR
18,17,2021,179,"Bazán Narro, Sigrid Tesoro",00179/2021-CR
19,17,2021,174,"Bazán Narro, Sigrid Tesoro",00174/2021-CR
20,18,2021,4788,"Bellido Ugarte, Guido",04788/2022-CR
21,18,2021,3774,"Bellido Ugarte, Guido",03774/2022-CR
22,19,2021,3774,"Bermejo Rojas, Guillermo",03774/2022-CR
23,20,2021,4287,"Burgos Oliveros, Juan Bartolomé",04287/2022-CR
24,20,2021,4121,"Burgos Oliveros, Juan Bartolomé",04121/2022-CR
25,20,2021,3774,"Burgos Oliveros, Juan Bartolomé",03774/2022-CR
26,23,2021,1491,"Camones Soriano, Lady Mercedes",01491/2021-CR
27,28,2021,983,"Chávez Chino, Betssy Betzabet",00983/2021-CR
28,30,2021,674,"Chirinos Venegas, Patricia Rosa",00674/2021-CR
29,31,2021,2953,"Ciccia Vásquez, Miguel Ángel",02953/2022-CR
30,31,2021,2204,"Ciccia Vásquez, Miguel Ángel",02204/2021-CR
31,33,2021,1650,"Cordero Jon Tay, Luis Gustavo",01650/2021-CR
32,33,2021,319,"Cordero Jon Tay, Luis Gustavo",00319/2021-CR
33,34,2021,1137,"Cordero Jon Tay, María Del Pilar",01137/2021-CR
34,36,2021,3254,"Cortez Aguirre, Isabel",03254/2022-CR
35,36,2021,1938,"Cortez Aguirre, Isabel",01938/2021-CR
36,36,2021,1298,"Cortez Aguirre, Isabel",01298/2021-CR
37,36,2021,906,"Cortez Aguirre, Isabel",00906/2021-CR
38,36,2021,790,"Cortez Aguirre, Isabel",00790/2021-CR
39,38,2021,4450,"Cueto Aservi, José Ernesto",04450/2022-CR
40,38,2021,2787,"Cueto Aservi, José Ernesto",02787/2022-CR
41,38,2021,1536,"Cueto Aservi, José Ernesto",01536/2021-CR
42,38,2021,1157,"Cueto Aservi, José Ernesto",01157/2021-CR
43,38,2021,1102,"Cueto Aservi, José Ernesto",01102/2021-CR
44,47,2021,1918,"Espinoza Vargas, Jhaec Darwin",01918/2021-CR
45,48,2021,1918,"Flores Ancachi, Jorge Luis",01918/2021-CR
46,48,2021,132,"Flores Ancachi, Jorge Luis",00132/2021-CR
47,53,2021,2328,"Gonza Castillo, Américo",02328/2021-CR
48,53,2021,2204,"Gonza Castillo, Américo",02204/2021-CR
49,132,2021,4115,"Heidinger Ballesteros, Nelcy Lidia",04115/2022-CR
50,132,2021,4050,"Heidinger Ballesteros, Nelcy Lidia",04050/2022-CR
51,56,2021,174,"Herrera Mamani, Fernando Mario",00174/2021-CR
52,57,2021,2953,"Herrera Medina, Noelia Rossvith",02953/2022-CR
53,57,2021,2309,"Herrera Medina, Noelia Rossvith",02309/2021-CR
54,57,2021,922,"Herrera Medina, Noelia Rossvith",00922/2021-CR
55,57,2021,713,"Herrera Medina, Noelia Rossvith",00713/2021-CR
56,58,2021,2458,"Huamán Coronado, Raúl",02458/2021-CR
57,58,2021,2394,"Huamán Coronado, Raúl",02394/2021-CR
58,59,2021,2541,"Infantes Castañeda, Mery Eliana",02541/2021-CR
59,59,2021,1299,"Infantes Castañeda, Mery Eliana",01299/2021-CR
60,60,2021,1269,"Jáuregui Martínez de Aguayo, María de los Milagros Jackeline",01269/2021-CR
61,60,2021,1229,"Jáuregui Martínez de Aguayo, María de los Milagros Jackeline",01229/2021-CR
62,60,2021,1223,"Jáuregui Martínez de Aguayo, María de los Milagros Jackeline",01223/2021-CR
63,60,2021,1147,"Jáuregui Martínez de Aguayo, María de los Milagros Jackeline",01147/2021-CR
64,60,2021,713,"Jáuregui Martínez de Aguayo, María de los Milagros Jackeline",00713/2021-CR
65,60,2021,659,"Jáuregui Martínez de Aguayo, María de los Milagros Jackeline",00659/2021-CR
66,60,2021,315,"Jáuregui Martínez de Aguayo, María de los Milagros Jackeline",00315/2021-CR
67,60,2021,314,"Jáuregui Martínez de Aguayo, María de los Milagros Jackeline",00314/2021-CR
68,60,2021,139,"Jáuregui Martínez de Aguayo, María de los Milagros Jackeline",00139/2021-CR
69,61,2021,4590,"Jerí Oré, José Enrique",04590/2022-CR
70,61,2021,3774,"Jerí Oré, José Enrique",03774/2022-CR
71,61,2021,3723,"Jerí Oré, José Enrique",03723/2022-CR
72,61,2021,2882,"Jerí Oré, José Enrique",02882/2022-CR
73,61,2021,2519,"Jerí Oré, José Enrique",02519/2021-CR
74,61,2021,2204,"Jerí Oré, José Enrique",02204/2021-CR
75,61,2021,1728,"Jerí Oré, José Enrique",01728/2021-CR
76,61,2021,1567,"Jerí Oré, José Enrique",01567/2021-CR
77,61,2021,1226,"Jerí Oré, José Enrique",01226/2021-CR
78,61,2021,1194,"Jerí Oré, José Enrique",01194/2021-CR
79,61,2021,1109,"Jerí Oré, José Enrique",01109/2021-CR
80,61,2021,1003,"Jerí Oré, José Enrique",01003/2021-CR
81,61,2021,952,"Jerí Oré, José Enrique",00952/2021-CR
82,61,2021,593,"Jerí Oré, José Enrique",00593/2021-CR
83,62,2021,4605,"Jiménez Heredia, David Julio",04605/2022-CR
84,63,2021,4099,"Juárez Calle, Heidy Lisbeth",04099/2022-CR
85,63,2021,3194,"Juárez Calle, Heidy Lisbeth",03194/2022-CR
86,66,2021,3774,"Kamiche Morante, Luis Roberto",03774/2022-CR
87,131,2021,420,"Limachi Quispe, Nieves Esmeralda",00420/2021-CR
88,131,2021,404,"Limachi Quispe, Nieves Esmeralda",00404/2021-CR
89,131,2021,402,"Limachi Quispe, Nieves Esmeralda",00402/2021-CR
90,71,2021,2300,"Luque Ibarra, Ruth",02300/2021-CR
91,71,2021,790,"Luque Ibarra, Ruth",00790/2021-CR
92,72,2021,4136,"Málaga Trillo, George Edward",04136/2022-CR
93,72,2021,2882,"Málaga Trillo, George Edward",02882/2022-CR
94,72,2021,1654,"Málaga Trillo, George Edward",01654/2021-CR
95,72,2021,1506,"Málaga Trillo, George Edward",01506/2021-CR
96,72,2021,1299,"Málaga Trillo, George Edward",01299/2021-CR
97,74,2021,1278,"Martínez Talavera, Pedro Edwin",01278/2021-CR
98,80,2021,1590,"Morante Figari, Jorge Alberto",01590/2021-CR
99,81,2021,4156,"Mori Celis, Juan Carlos",04156/2022-CR
100,81,2021,3774,"Mori Celis, Juan Carlos",03774/2022-CR
101,83,2021,2085,"Muñante Barrios, Alejandro",02085/2021-CR
102,83,2021,1229,"Muñante Barrios, Alejandro",01229/2021-CR
103,83,2021,958,"Muñante Barrios, Alejandro",00958/2021-CR
104,83,2021,534,"Muñante Barrios, Alejandro",00534/2021-CR
105,86,2021,1918,"Pablo Medina, Flor Aidee",01918/2021-CR
106,88,2021,1491,"Palacios Huamán, Margot",01491/2021-CR
107,92,2021,5563,"Paredes Piqué, Susel Ana María",05563/2022-CR
108,92,2021,4659,"Paredes Piqué, Susel Ana María",04659/2022-CR
109,92,2021,3788,"Paredes Piqué, Susel Ana María",03788/2022-CR
110,92,2021,1910,"Paredes Piqué, Susel Ana María",01910/2021-CR
111,93,2021,2953,"Pariona Sinche, Alfredo",02953/2022-CR
112,94,2021,4764,"Picón Quedo, Luis Raúl",04764/2022-CR
113,94,2021,4588,"Picón Quedo, Luis Raúl",04588/2022-CR
114,94,2021,4233,"Picón Quedo, Luis Raúl",04233/2022-CR
115,94,2021,4079,"Picón Quedo, Luis Raúl",04079/2022-CR
116,94,2021,3610,"Picón Quedo, Luis Raúl",03610/2022-CR
117,94,2021,3050,"Picón Quedo, Luis Raúl",03050/2022-CR
118,95,2021,2953,"Portalatino Ávalos, Kelly Roxana",02953/2022-CR
119,96,2021,2960,"Portero López, Hilda Marleny",02960/2022-CR
120,96,2021,2572,"Portero López, Hilda Marleny",02572/2021-CR
121,96,2021,2075,"Portero López, Hilda Marleny",02075/2021-CR
122,96,2021,1947,"Portero López, Hilda Marleny",01947/2021-CR
123,96,2021,744,"Portero López, Hilda Marleny",00744/2021-CR
124,96,2021,660,"Portero López, Hilda Marleny",00660/2021-CR
125,101,2021,2279,"Revilla Villanueva, César Manuel",02279/2021-CR
126,101,2021,744,"Revilla Villanueva, César Manuel",00744/2021-CR
127,102,2021,3330,"Reyes Cam, Abel Augusto",03330/2022-CR
128,103,2021,790,"Reymundo Mercado, Edgard Cornelio",00790/2021-CR
129,105,2021,3774,"Robles Araujo, Silvana Emperatriz",03774/2022-CR
130,109,2021,790,"Sánchez Palomino, Roberto Helbert",00790/2021-CR
131,110,2021,3330,"Soto Palacios, Wilson",03330/2022-CR
132,116,2021,2204,"Trigozo Reátegui, Cheryl",02204/2021-CR
133,117,2021,1520,"Tudela Gutiérrez, Adriana Josefina",01520/2021-CR
134,121,2021,3774,"Vásquez Vela, Lucinda",03774/2022-CR
135,121,2021,2953,"Vásquez Vela, Lucinda",02953/2022-CR
136,121,2021,704,"Vásquez Vela, Lucinda",00704/2021-CR
137,127,2021,3711,"Zea Choquechambi, Oscar",03711/2022-CR
138,127,2021,798,"Zea Choquechambi, Oscar",00798/2021-CR
139,129,2021,914,"Zeballos Madariaga, Carlos Javier",00914/2021-CR
