id,grupo_id,name
1,,Acción Popular
13,,Acción Republicana
2,,Alianza Para el Progreso
25,,Avanza País
30,,Avanza País - Partido de Integración Social
10,,Bancada Liberal
34,,Bloque Magisterial de Concertación Nacional 
11,,Cambio 21
32,,Cambio Democrático
33,,Cambio Democrático - Juntos por el Perú
3,,Célula Parlamentaria Aprista
22,,Comisión Especial (no es grupo parlamentario)
14,,Concertación Parlamentaria
15,,Contigo
23,,Descentralización Democrática
4,,"Frente Amplio por Justicia, Vida y Libertad"
21,,Frente Patriótico-Etnocacerista
16,,Frente Popular Agrícola del Perú
5,,Fuerza Popular
36,,Integridad y Desarrollo
26,,Juntos por el Perú
7,,Multipartidario
8,,No Agrupados
24,,Nueva Constitución
38,,Nueva Constitución - Socialista
9,,Nuevo Perú
17,,Partido Morado
35,,Perú Bicentenario
31,,Perú Democrático
27,,Perú Libre
6,,Peruanos por el Kambio
18,,Podemos Perú
28,,Renovación Popular
19,,Somos Perú
29,,Somos Perú - Partido Morado
37,,Unidad y Dialogo Parlamentario
12,,Unidos por la República
20,,Unión por el Perú
