id,name,proyectoley_count,congresista_id
1,"Vásquez Vela, Lucinda",25,121
2,"Bazán Calderón, Diego Alonso Fernando",39,16
3,"Barbarán Reyes, Rosangella Andrea",25,15
4,"Julón Irigoín, Elva Edhit",39,65
5,"Echaíz de Núñez Izaga, Gladys Margot",2,43
6,"Flores Ramírez, Alex Randu",38,49
7,"Díaz Monago, Freddy Roland",22,41
8,"Quispe Mamani, Wilson Rusbel",81,98
9,"Castillo Rivas, Eduardo Enrique",16,24
10,"Amuruz Dulanto, Yessica Rosselli",35,9
11,"Olivos Martínez, Vivian",18,85
12,"Acuña Peralta, María Grimaneza",44,1
13,"Zeballos Aponte, Jorge Arturo",15,128
14,"Yarrow Lumbreras, Norma Martina",37,126
15,"Cordero Jon Tay, Luis Gustavo",6,33
16,"Williams Zapata, José Daniel",29,124
17,"Balcázar Zelada, José María",1,14
18,"Tudela Gutiérrez, Adriana Josefina",31,117
19,"Cruz Mamani, Flavio",117,37
20,"Infantes Castañeda, Mery Eliana",15,59
21,"Luna Gálvez, José León",41,70
22,"Wong Pujada, Enrique",10,125
23,"Quiroz Barboza, Segundo Teodomiro",73,97
24,"Zeballos Madariaga, Carlos Javier",57,129
25,"Valer Pinto, Héctor",23,119
26,"Revilla Villanueva, César Manuel",23,101
27,"Huamán Coronado, Raúl",12,58
28,"Pariona Sinche, Alfredo",65,93
29,"Jiménez Heredia, David Julio",22,62
30,"Cerrón Rojas, Waldemar José",102,26
31,"Reymundo Mercado, Edgard Cornelio",53,103
32,"Arriola Tueros, José Alberto",18,12
33,"Gonza Castillo, Américo",74,53
34,"Bermejo Rojas, Guillermo",35,19
35,"Luque Ibarra, Ruth",66,71
36,"Monteza Facho, Silvia María",60,78
37,"Obando Morgan, Auristela Ana",9,84
38,"Agüero Gutiérrez, María Antonieta",18,3
39,"Picón Quedo, Luis Raúl",19,94
40,"Gonzales Delgado, Diana Carolina",10,54
41,"Rivas Chacara, Janet Milagros",30,104
42,"Pablo Medina, Flor Aidee",15,86
43,"Chirinos Venegas, Patricia Rosa",49,30
44,"Chiabra León, Roberto Enrique",19,29
45,"Lizarzaburu Lizarzaburu, Juan Carlos Martin",30,67
46,"Ruíz Rodríguez, Magaly Rosmery",26,106
47,"Paredes Fonseca, Karol Ivett",44,90
48,"Muñante Barrios, Alejandro",31,83
49,"Anderson Ramírez, Carlos Antonio",12,10
50,"Ramírez García, Tania Estefany",7,100
51,"Calle Lobatón, Digna",79,22
52,"Tello Montes, Nivardo Edgar",35,114
53,"Saavedra Casternoque, Hitler",9,107
54,"Coayla Juárez, Jorge Samuel",20,32
55,"Robles Araujo, Silvana Emperatriz",32,105
56,"Portero López, Hilda Marleny",37,96
57,"Bazán Narro, Sigrid Tesoro",38,17
58,"Ventura Ángel, Héctor José",8,122
59,"Cutipa Ccama, Víctor Raúl",61,39
60,"Paredes Castro, Francis Jhasmina",53,89
61,"Málaga Trillo, George Edward",19,72
62,"Salhuana Cavides, Eduardo",44,108
63,"Taipe Coronado, María Elizabeth",62,113
64,"Kamiche Morante, Luis Roberto",75,66
65,"Herrera Medina, Noelia Rossvith",32,57
66,"Córdova Lobatón, María Jessica",18,35
67,"Burgos Oliveros, Juan Bartolomé",57,20
68,"Alva Prieto, María del Carmen",28,7
69,"Montalvo Cubas, Segundo Toribio",191,77
70,"García Correa, Idelso Manuel",19,52
71,"Martínez Talavera, Pedro Edwin",58,74
72,"Juárez Calle, Heidy Lisbeth",11,63
73,"Heidinger Ballesteros, Nelcy Lidia",6,132
74,"Portalatino Ávalos, Kelly Roxana",43,95
75,"Tacuri Valdivia, Germán Adolfo",33,112
76,"Dávila Atanacio, Pasión Neomías",30,40
77,"Camones Soriano, Lady Mercedes",58,23
78,"Flores Ruiz, Víctor Seferino",54,50
79,"Paredes Piqué, Susel Ana María",22,92
80,"Cordero Jon Tay, María Del Pilar",11,34
81,"Soto Reyes, Alejandro",210,111
82,"Cueto Aservi, José Ernesto",22,38
83,"Jáuregui Martínez de Aguayo, María de los Milagros Jackeline",28,60
84,"Zea Choquechambi, Oscar",20,127
85,"Mita Alanoca, Isaac",14,134
86,"Chacón Trujillo, Nilza Merly",20,27
87,"Reyes Cam, Abel Augusto",3,102
88,"Jerí Oré, José Enrique",29,61
89,"Flores Ancachi, Jorge Luis",226,48
90,"Medina Hermosilla, Elizabeth Sara",31,75
91,"Bustamante Donayre, Carlos Ernesto",14,21
92,"Marticorena Mendoza, Jorge Alfonso",25,73
93,"Mori Celis, Juan Carlos",50,81
94,"Moyano Delgado, Martha Lupe",29,82
95,"Alegría García, Arturo",13,6
96,"Alva Rojas, Carlos Enrique",24,8
97,"López Ureña, Ilich Fredy",36,69
98,"Aguinaga Recuenco, Alejandro Aurelio",16,4
99,"Ugarte Mamani, Jhakeline Katy",188,118
100,"Acuña Peralta, Segundo Héctor",21,2
101,"Soto Palacios, Wilson",61,110
102,"Montoya Manrique, Jorge Carlos",23,79
103,"Chávez Chino, Betssy Betzabet",36,28
104,"Morante Figari, Jorge Alberto",14,80
105,"Gutiérrez Ticona, Paul Silvio",100,55
106,"Echeverría Rodríguez, Hamlet",23,44
107,"Alcarraz Agüero, Yorel Kira",28,5
108,"Bellido Ugarte, Guido",78,18
109,"Vergara Mendoza, Elvis Hernán",39,123
110,"Juárez Gallegos, Carmen Patricia",27,64
111,"Zeta Chunga, Cruz Maria",19,130
112,"Trigozo Reátegui, Cheryl",24,116
113,"Guerra García Campos, Hernando",28,51
114,"Quito Sarmiento, Bernardo Jaime",36,99
115,"Pazo Nunura, Jose Bernardo",9,133
116,"Doroteo Carbajo, Raúl Felipe",8,42
117,"Cortez Aguirre, Isabel",48,36
118,"Varas Meléndez, Elías Marcial",30,120
119,"Sánchez Palomino, Roberto Helbert",8,109
120,"Elías Ávalos, José Luis",34,46
121,"Azurín Loayza, Alfredo",20,13
122,"Ciccia Vásquez, Miguel Ángel",37,31
123,"Herrera Mamani, Fernando Mario",1,56
124,"Paredes Gonzales, Alex Antonio",58,91
125,"Limachi Quispe, Nieves Esmeralda",51,131
126,"Espinoza Vargas, Jhaec Darwin",30,47
127,"Cavero Alva, Alejandro Enrique",28,25
128,"Aragón Carreño, Luis Ángel",96,11
129,"Padilla Romero, Javier Rommel",16,87
130,"López Morales, Jeny Luz",11,68
131,"Elera García, Wilmar Alberto",5,45
132,"Medina Minaya, Esdras Ricardo",78,76
133,"Torres Salinas, Rosio",24,115
134,"Palacios Huamán, Margot",30,88
