id,grupo_id,name
1,1,Acción Popular
13,13,Acción Republicana
2,2,Alianza Para el Progreso
25,25,Avanza País
30,30,Avanza País - Partido de Integración Social
10,10,Bancada Liberal
34,34,Bloque Magisterial de Concertación Nacional 
11,11,Cambio 21
32,32,Cambio Democrático
33,33,Cambio Democrático - Juntos por el Perú
3,3,Célula Parlamentaria Aprista
22,22,Comisión Especial (no es grupo parlamentario)
14,14,Concertación Parlamentaria
15,15,Contigo
23,23,Descentralización Democrática
4,4,"Frente Amplio por Justicia, Vida y Libertad"
21,21,Frente Patriótico-Etnocacerista
16,16,Frente Popular Agrícola del Perú
5,5,Fuerza Popular
36,36,Integridad y Desarrollo
26,26,Juntos por el Perú
7,7,Multipartidario
8,8,No Agrupados
24,24,Nueva Constitución
38,38,Nueva Constitución - Socialista
9,9,Nuevo Perú
17,17,Partido Morado
35,35,Perú Bicentenario
31,31,Perú Democrático
27,27,Perú Libre
6,6,Peruanos por el Kambio
18,18,Podemos Perú
28,28,Renovación Popular
19,19,Somos Perú
29,29,Somos Perú - Partido Morado
37,37,Unidad y Dialogo Parlamentario
12,12,Unidos por la República
20,20,Unión por el Perú
