id,name,proyectoley_count,congresista_id
135,"Vásquez Vela, Lucinda",25,121
136,"Bazán Calderón, Diego Alonso Fernando",39,16
137,"Barbarán Reyes, Rosangella Andrea",25,15
138,"Julón Irigoín, Elva Edhit",39,65
139,"Echaíz de Núñez Izaga, Gladys Margot",2,43
140,"Flores Ramírez, Alex Randu",38,49
141,"Díaz Monago, Freddy Roland",22,41
142,"Quispe Mamani, Wilson Rusbel",81,98
143,"Castillo Rivas, Eduardo Enrique",16,24
144,"Amuruz Dulanto, Yessica Rosselli",35,9
145,"Olivos Martínez, Vivian",18,85
146,"Acuña Peralta, María Grimaneza",44,1
147,"Zeballos Aponte, Jorge Arturo",15,128
148,"Yarrow Lumbreras, Norma Martina",37,126
149,"Cordero Jon Tay, Luis Gustavo",6,33
150,"Williams Zapata, José Daniel",29,124
151,"Balcázar Zelada, José María",1,14
152,"Tudela Gutiérrez, Adriana Josefina",31,117
153,"Cruz Mamani, Flavio",117,37
154,"Infantes Castañeda, Mery Eliana",15,59
155,"Luna Gálvez, José León",41,70
156,"Wong Pujada, Enrique",10,125
157,"Quiroz Barboza, Segundo Teodomiro",73,97
158,"Zeballos Madariaga, Carlos Javier",57,129
159,"Valer Pinto, Héctor",23,119
160,"Revilla Villanueva, César Manuel",24,101
161,"Huamán Coronado, Raúl",13,58
162,"Pariona Sinche, Alfredo",65,93
163,"Jiménez Heredia, David Julio",22,62
164,"Cerrón Rojas, Waldemar José",103,26
165,"Reymundo Mercado, Edgard Cornelio",53,103
166,"Arriola Tueros, José Alberto",18,12
167,"Gonza Castillo, Américo",74,53
168,"Bermejo Rojas, Guillermo",35,19
169,"Luque Ibarra, Ruth",67,71
170,"Monteza Facho, Silvia María",60,78
171,"Obando Morgan, Auristela Ana",9,84
172,"Agüero Gutiérrez, María Antonieta",18,3
173,"Picón Quedo, Luis Raúl",19,94
174,"Gonzales Delgado, Diana Carolina",10,54
175,"Rivas Chacara, Janet Milagros",30,104
176,"Pablo Medina, Flor Aidee",15,86
177,"Chirinos Venegas, Patricia Rosa",49,30
178,"Chiabra León, Roberto Enrique",19,29
179,"Lizarzaburu Lizarzaburu, Juan Carlos Martin",30,67
180,"Ruíz Rodríguez, Magaly Rosmery",26,106
181,"Paredes Fonseca, Karol Ivett",44,90
182,"Muñante Barrios, Alejandro",31,83
183,"Anderson Ramírez, Carlos Antonio",12,10
184,"Ramírez García, Tania Estefany",8,100
185,"Calle Lobatón, Digna",79,22
186,"Tello Montes, Nivardo Edgar",35,114
187,"Saavedra Casternoque, Hitler",9,107
188,"Coayla Juárez, Jorge Samuel",20,32
189,"Robles Araujo, Silvana Emperatriz",32,105
190,"Portero López, Hilda Marleny",37,96
191,"Bazán Narro, Sigrid Tesoro",38,17
192,"Ventura Ángel, Héctor José",8,122
193,"Cutipa Ccama, Víctor Raúl",61,39
194,"Paredes Castro, Francis Jhasmina",53,89
195,"Málaga Trillo, George Edward",19,72
196,"Salhuana Cavides, Eduardo",44,108
197,"Taipe Coronado, María Elizabeth",62,113
198,"Kamiche Morante, Luis Roberto",75,66
199,"Herrera Medina, Noelia Rossvith",32,57
200,"Córdova Lobatón, María Jessica",18,35
201,"Burgos Oliveros, Juan Bartolomé",57,20
202,"Alva Prieto, María del Carmen",28,7
203,"Montalvo Cubas, Segundo Toribio",191,77
204,"García Correa, Idelso Manuel",19,52
205,"Martínez Talavera, Pedro Edwin",58,74
206,"Juárez Calle, Heidy Lisbeth",11,63
207,"Heidinger Ballesteros, Nelcy Lidia",6,132
208,"Portalatino Ávalos, Kelly Roxana",43,95
209,"Tacuri Valdivia, Germán Adolfo",33,112
210,"Dávila Atanacio, Pasión Neomías",30,40
211,"Camones Soriano, Lady Mercedes",58,23
212,"Flores Ruiz, Víctor Seferino",54,50
213,"Paredes Piqué, Susel Ana María",22,92
214,"Cordero Jon Tay, María Del Pilar",11,34
215,"Soto Reyes, Alejandro",210,111
216,"Cueto Aservi, José Ernesto",22,38
217,"Jáuregui Martínez de Aguayo, María de los Milagros Jackeline",28,60
218,"Zea Choquechambi, Oscar",20,127
219,"Mita Alanoca, Isaac",14,134
220,"Chacón Trujillo, Nilza Merly",20,27
221,"Reyes Cam, Abel Augusto",3,102
222,"Jerí Oré, José Enrique",29,61
223,"Flores Ancachi, Jorge Luis",226,48
224,"Medina Hermosilla, Elizabeth Sara",31,75
225,"Bustamante Donayre, Carlos Ernesto",14,21
226,"Marticorena Mendoza, Jorge Alfonso",25,73
227,"Mori Celis, Juan Carlos",50,81
228,"Moyano Delgado, Martha Lupe",29,82
229,"Alegría García, Arturo",13,6
230,"Alva Rojas, Carlos Enrique",24,8
231,"López Ureña, Ilich Fredy",36,69
232,"Aguinaga Recuenco, Alejandro Aurelio",16,4
233,"Ugarte Mamani, Jhakeline Katy",188,118
234,"Acuña Peralta, Segundo Héctor",21,2
235,"Soto Palacios, Wilson",61,110
236,"Montoya Manrique, Jorge Carlos",23,79
237,"Chávez Chino, Betssy Betzabet",36,28
238,"Morante Figari, Jorge Alberto",14,80
239,"Gutiérrez Ticona, Paul Silvio",102,55
240,"Echeverría Rodríguez, Hamlet",23,44
241,"Alcarraz Agüero, Yorel Kira",28,5
242,"Bellido Ugarte, Guido",78,18
243,"Vergara Mendoza, Elvis Hernán",39,123
244,"Juárez Gallegos, Carmen Patricia",27,64
245,"Zeta Chunga, Cruz Maria",19,130
246,"Trigozo Reátegui, Cheryl",24,116
247,"Guerra García Campos, Hernando",28,51
248,"Quito Sarmiento, Bernardo Jaime",36,99
249,"Pazo Nunura, Jose Bernardo",9,133
250,"Doroteo Carbajo, Raúl Felipe",8,42
251,"Cortez Aguirre, Isabel",48,36
252,"Varas Meléndez, Elías Marcial",30,120
253,"Sánchez Palomino, Roberto Helbert",8,109
254,"Elías Ávalos, José Luis",34,46
255,"Azurín Loayza, Alfredo",20,13
256,"Ciccia Vásquez, Miguel Ángel",37,31
257,"Herrera Mamani, Fernando Mario",1,56
258,"Paredes Gonzales, Alex Antonio",58,91
259,"Limachi Quispe, Nieves Esmeralda",51,131
260,"Espinoza Vargas, Jhaec Darwin",30,47
261,"Cavero Alva, Alejandro Enrique",28,25
262,"Aragón Carreño, Luis Ángel",96,11
263,"Padilla Romero, Javier Rommel",16,87
264,"López Morales, Jeny Luz",11,68
265,"Elera García, Wilmar Alberto",5,45
266,"Medina Minaya, Esdras Ricardo",78,76
267,"Torres Salinas, Rosio",24,115
268,"Palacios Huamán, Margot",30,88
269,"Vásquez Vela, Lucinda",25,
270,"Bazán Calderón, Diego Alonso Fernando",39,
271,"Barbarán Reyes, Rosangella Andrea",25,
272,"Julón Irigoín, Elva Edhit",39,
273,"Echaíz de Núñez Izaga, Gladys Margot",2,
274,"Flores Ramírez, Alex Randu",38,
275,"Díaz Monago, Freddy Roland",22,
276,"Quispe Mamani, Wilson Rusbel",81,
277,"Castillo Rivas, Eduardo Enrique",16,
278,"Amuruz Dulanto, Yessica Rosselli",35,
279,"Olivos Martínez, Vivian",18,
280,"Acuña Peralta, María Grimaneza",44,
281,"Zeballos Aponte, Jorge Arturo",15,
282,"Yarrow Lumbreras, Norma Martina",37,
283,"Cordero Jon Tay, Luis Gustavo",6,
284,"Williams Zapata, José Daniel",29,
285,"Balcázar Zelada, José María",1,
286,"Tudela Gutiérrez, Adriana Josefina",31,
287,"Cruz Mamani, Flavio",117,
288,"Infantes Castañeda, Mery Eliana",15,
289,"Luna Gálvez, José León",41,
290,"Wong Pujada, Enrique",10,
291,"Quiroz Barboza, Segundo Teodomiro",73,
292,"Zeballos Madariaga, Carlos Javier",57,
293,"Valer Pinto, Héctor",23,
294,"Revilla Villanueva, César Manuel",24,
295,"Huamán Coronado, Raúl",13,
296,"Pariona Sinche, Alfredo",65,
297,"Jiménez Heredia, David Julio",22,
298,"Cerrón Rojas, Waldemar José",103,
299,"Reymundo Mercado, Edgard Cornelio",53,
300,"Arriola Tueros, José Alberto",18,
301,"Gonza Castillo, Américo",74,
302,"Bermejo Rojas, Guillermo",35,
303,"Luque Ibarra, Ruth",67,
304,"Monteza Facho, Silvia María",60,
305,"Obando Morgan, Auristela Ana",9,
306,"Agüero Gutiérrez, María Antonieta",18,
307,"Picón Quedo, Luis Raúl",19,
308,"Gonzales Delgado, Diana Carolina",10,
309,"Rivas Chacara, Janet Milagros",30,
310,"Pablo Medina, Flor Aidee",15,
311,"Chirinos Venegas, Patricia Rosa",49,
312,"Chiabra León, Roberto Enrique",19,
313,"Lizarzaburu Lizarzaburu, Juan Carlos Martin",30,
314,"Ruíz Rodríguez, Magaly Rosmery",26,
315,"Paredes Fonseca, Karol Ivett",44,
316,"Muñante Barrios, Alejandro",31,
317,"Anderson Ramírez, Carlos Antonio",12,
318,"Ramírez García, Tania Estefany",8,
319,"Calle Lobatón, Digna",79,
320,"Tello Montes, Nivardo Edgar",35,
321,"Saavedra Casternoque, Hitler",9,
322,"Coayla Juárez, Jorge Samuel",20,
323,"Robles Araujo, Silvana Emperatriz",32,
324,"Portero López, Hilda Marleny",37,
325,"Bazán Narro, Sigrid Tesoro",38,
326,"Ventura Ángel, Héctor José",8,
327,"Cutipa Ccama, Víctor Raúl",61,
328,"Paredes Castro, Francis Jhasmina",53,
329,"Málaga Trillo, George Edward",19,
330,"Salhuana Cavides, Eduardo",44,
331,"Taipe Coronado, María Elizabeth",62,
332,"Kamiche Morante, Luis Roberto",75,
333,"Herrera Medina, Noelia Rossvith",32,
334,"Córdova Lobatón, María Jessica",18,
335,"Burgos Oliveros, Juan Bartolomé",57,
336,"Alva Prieto, María del Carmen",28,
337,"Montalvo Cubas, Segundo Toribio",191,
338,"García Correa, Idelso Manuel",19,
339,"Martínez Talavera, Pedro Edwin",58,
340,"Juárez Calle, Heidy Lisbeth",11,
341,"Heidinger Ballesteros, Nelcy Lidia",6,
342,"Portalatino Ávalos, Kelly Roxana",43,
343,"Tacuri Valdivia, Germán Adolfo",33,
344,"Dávila Atanacio, Pasión Neomías",30,
345,"Camones Soriano, Lady Mercedes",58,
346,"Flores Ruiz, Víctor Seferino",54,
347,"Paredes Piqué, Susel Ana María",22,
348,"Cordero Jon Tay, María Del Pilar",11,
349,"Soto Reyes, Alejandro",210,
350,"Cueto Aservi, José Ernesto",22,
351,"Jáuregui Martínez de Aguayo, María de los Milagros Jackeline",28,
352,"Zea Choquechambi, Oscar",20,
353,"Mita Alanoca, Isaac",14,
354,"Chacón Trujillo, Nilza Merly",20,
355,"Reyes Cam, Abel Augusto",3,
356,"Jerí Oré, José Enrique",29,
357,"Flores Ancachi, Jorge Luis",226,
358,"Medina Hermosilla, Elizabeth Sara",31,
359,"Bustamante Donayre, Carlos Ernesto",14,
360,"Marticorena Mendoza, Jorge Alfonso",25,
361,"Mori Celis, Juan Carlos",50,
362,"Moyano Delgado, Martha Lupe",29,
363,"Alegría García, Arturo",13,
364,"Alva Rojas, Carlos Enrique",24,
365,"López Ureña, Ilich Fredy",36,
366,"Aguinaga Recuenco, Alejandro Aurelio",16,
367,"Ugarte Mamani, Jhakeline Katy",188,
368,"Acuña Peralta, Segundo Héctor",21,
369,"Soto Palacios, Wilson",61,
370,"Montoya Manrique, Jorge Carlos",23,
371,"Chávez Chino, Betssy Betzabet",36,
372,"Morante Figari, Jorge Alberto",14,
373,"Gutiérrez Ticona, Paul Silvio",102,
374,"Echeverría Rodríguez, Hamlet",23,
375,"Alcarraz Agüero, Yorel Kira",28,
376,"Bellido Ugarte, Guido",78,
377,"Vergara Mendoza, Elvis Hernán",39,
378,"Juárez Gallegos, Carmen Patricia",27,
379,"Zeta Chunga, Cruz Maria",19,
380,"Trigozo Reátegui, Cheryl",24,
381,"Guerra García Campos, Hernando",28,
382,"Quito Sarmiento, Bernardo Jaime",36,
383,"Pazo Nunura, Jose Bernardo",9,
384,"Doroteo Carbajo, Raúl Felipe",8,
385,"Cortez Aguirre, Isabel",48,
386,"Varas Meléndez, Elías Marcial",30,
387,"Sánchez Palomino, Roberto Helbert",8,
388,"Elías Ávalos, José Luis",34,
389,"Azurín Loayza, Alfredo",20,
390,"Ciccia Vásquez, Miguel Ángel",37,
391,"Herrera Mamani, Fernando Mario",1,
392,"Paredes Gonzales, Alex Antonio",58,
393,"Limachi Quispe, Nieves Esmeralda",51,
394,"Espinoza Vargas, Jhaec Darwin",30,
395,"Cavero Alva, Alejandro Enrique",28,
396,"Aragón Carreño, Luis Ángel",96,
397,"Padilla Romero, Javier Rommel",16,
398,"López Morales, Jeny Luz",11,
399,"Elera García, Wilmar Alberto",5,
400,"Medina Minaya, Esdras Ricardo",78,
401,"Torres Salinas, Rosio",24,
402,"Palacios Huamán, Margot",30,
